{
  "software_id": "org.hspconsortium.sandbox:hspc-cardiac-risk-app:1.0-SNAPSHOT",
  "client_name": "Growth Chart App",
  "client_uri": "https://growth-chart-app.logicahealth.org/index.html",
  "logo_uri": "https://growth-chart-app.logicahealth.org/images/logo.png",
  "launch_url": "https://growth-chart-app.logicahealth.org/launch.html",
  "redirect_uris": [
    "https://growth-chart-app.logicahealth.org/app.html"
  ],
  "scope": "launch online_access patient/*.read",
  "token_endpoint_auth_method": "none",
  "grant_types": [
    "authorization_code"
  ],
  "fhir_versions": [
    "1.0.2", "1.4.0", "1.6.0", "1.8.0"
  ]
}



